{
    "playableFaction":false,
    "pirateFaction":true,
    "corvusCompatible":true,
    "noHomeworld":true,
    "showIntelEvenIfDead":false,
	"enabledByDefault":"false",
        
    "rebelFleetSuffix":"Rivals",
    
    "difficultyString":"hard",
    
    "alignments":{
        "ideological":0.5,
    },
    
    "freeMarket":true,
    
    "vengeanceFleetNames":["Enforcers", "Hit-Fleet", "Horde"],
    "vengeanceFleetNamesSingle":["an Enforcer fleet", "a Hit-Fleet", "a Horde"],

    "startShipsSolo":[
      ["ssp_scythe_bal"],
      ["cerberus_d_pirates_Shielded"]
    ],
    "startShipsCombatSmall":[
      ["ssp_boar_sta", "ssp_tiger_rai", "ssp_sidecar_punp"],   # lol Sidecar
      ["enforcer_d_pirates_Strike", "buffalo2_FS", "hound_d_pirates_Standard"]
    ],
    "startShipsTradeSmall":[
      ["mule_d_pirates_Standard", "ssp_venom_sta", "hermes_FS"],
      ["mule_d_pirates_Standard", "brawler_Assault", "shepherd_Frontier"]
    ],
    "startShipsCombatLarge":[
      ["ssp_barbarian_balp", "ssp_shark_rai", "ssp_scythe_sta"],
      ["falcon_p_Strike", "enforcer_d_pirates_Strike", "lasher_Standard"]
    ],
    "startShipsTradeLarge":[
      ["ssp_stalker_sta", "buffalo_pirates_Standard", "ssp_venom_fas"],
      ["venture_Balanced", "buffalo_pirates_Standard", "cerberus_d_pirates_Standard"]
    ],
    "startShipsCarrierSmall":[["condor_Attack", "buffalo2_FS", "lasher_Standard"]],
    "startShipsCarrierLarge":[["colossus3_Pirate", "enforcer_d_pirates_Strike", "hound_d_pirates_Standard"]],
    "startShipsSuper":[["ssp_venomx_str"]],
    
    "startSpecialItems":[
        [["pirate_package", ""]],
    ],
    
    "defenceStations":[
        {"ids":["orbitalstation", "battlestation", "starfortress"]},
    ],
    
    "industrySeeds":[
        {"id":"orbitalworks", "mult":0.05},
        {"id":"fuelprod", "mult":0.05, "roundUp":false},
    ],
}